Projetos Digitais e  Microprocessadores/teste.vcd
$date
  Tue Sep 24 21:44:30 2013
$end
$version
  GHDL v0
$end
$timescale
  1 fs
$end
$var reg 1 ! clk_in $end
$var reg 1 " reset_in $end
$var reg 1 # a_in $end
$var reg 1 $ y_out $end
$scope module e1 $end
$var reg 1 % clk $end
$var reg 1 & reset $end
$var reg 1 ' a $end
$var reg 1 ( y $end
$var reg 1 ) s1 $end
$var reg 1 * s2 $end
$var reg 1 + s3 $end
$var reg 1 , s4 $end
$var reg 1 - s5 $end
$var reg 1 . s6 $end
$var reg 1 / s7 $end
$var reg 1 0 s8 $end
$var reg 1 1 lixo $end
$scope module f1 $end
$var reg 1 2 clk $end
$var reg 1 3 d $end
$var reg 1 4 reset $end
$var reg 1 5 q $end
$var reg 1 6 nq $end
$var reg 1 7 s1 $end
$var reg 1 8 s2 $end
$scope module i1 $end
$var reg 1 9 a $end
$var reg 1 : y $end
$upscope $end
$scope module a1 $end
$var reg 1 ; a $end
$var reg 1 < b $end
$var reg 1 = y $end
$upscope $end
$scope module f1 $end
$var reg 1 > clk $end
$var reg 1 ? d $end
$var reg 1 @ q $end
$var reg 1 A nq $end
$var reg 1 B s1 $end
$var reg 1 C s2 $end
$var reg 1 D lixo $end
$scope module i1 $end
$var reg 1 E a $end
$var reg 1 F y $end
$upscope $end
$scope module l1 $end
$var reg 1 G clk $end
$var reg 1 H d $end
$var reg 1 I q $end
$var reg 1 J nq $end
$var reg 1 K s1 $end
$var reg 1 L s2 $end
$var reg 1 M s3 $end
$var reg 1 N s4 $end
$var reg 1 O s5 $end
$scope module n1 $end
$var reg 1 P a $end
$var reg 1 Q b $end
$var reg 1 R y $end
$upscope $end
$scope module n2 $end
$var reg 1 S a $end
$var reg 1 T b $end
$var reg 1 U y $end
$upscope $end
$scope module i1 $end
$var reg 1 V a $end
$var reg 1 W y $end
$upscope $end
$scope module l1 $end
$var reg 1 X s $end
$var reg 1 Y r $end
$var reg 1 Z q $end
$var reg 1 [ nq $end
$var reg 1 \ s1 $end
$var reg 1 ] s2 $end
$var reg 1 ^ s3 $end
$var reg 1 _ s4 $end
$scope module n1 $end
$var reg 1 ` a $end
$var reg 1 a b $end
$var reg 1 b y $end
$upscope $end
$scope module n2 $end
$var reg 1 c a $end
$var reg 1 d b $end
$var reg 1 e y $end
$upscope $end
$scope module i1 $end
$var reg 1 f a $end
$var reg 1 g y $end
$upscope $end
$scope module i2 $end
$var reg 1 h a $end
$var reg 1 i y $end
$upscope $end
$upscope $end
$upscope $end
$scope module l2 $end
$var reg 1 j clk $end
$var reg 1 k d $end
$var reg 1 l q $end
$var reg 1 m nq $end
$var reg 1 n s1 $end
$var reg 1 o s2 $end
$var reg 1 p s3 $end
$var reg 1 q s4 $end
$var reg 1 r s5 $end
$scope module n1 $end
$var reg 1 s a $end
$var reg 1 t b $end
$var reg 1 u y $end
$upscope $end
$scope module n2 $end
$var reg 1 v a $end
$var reg 1 w b $end
$var reg 1 x y $end
$upscope $end
$scope module i1 $end
$var reg 1 y a $end
$var reg 1 z y $end
$upscope $end
$scope module l1 $end
$var reg 1 { s $end
$var reg 1 | r $end
$var reg 1 } q $end
$var reg 1 !" nq $end
$var reg 1 "" s1 $end
$var reg 1 #" s2 $end
$var reg 1 $" s3 $end
$var reg 1 %" s4 $end
$scope module n1 $end
$var reg 1 &" a $end
$var reg 1 '" b $end
$var reg 1 (" y $end
$upscope $end
$scope module n2 $end
$var reg 1 )" a $end
$var reg 1 *" b $end
$var reg 1 +" y $end
$upscope $end
$scope module i1 $end
$var reg 1 ," a $end
$var reg 1 -" y $end
$upscope $end
$scope module i2 $end
$var reg 1 ." a $end
$var reg 1 /" y $end
$upscope $end
$upscope $end
$upscope $end
$upscope $end
$upscope $end
$scope module f0 $end
$var reg 1 0" clk $end
$var reg 1 1" d $end
$var reg 1 2" reset $end
$var reg 1 3" q $end
$var reg 1 4" nq $end
$var reg 1 5" s1 $end
$var reg 1 6" s2 $end
$scope module i1 $end
$var reg 1 7" a $end
$var reg 1 8" y $end
$upscope $end
$scope module a1 $end
$var reg 1 9" a $end
$var reg 1 :" b $end
$var reg 1 ;" y $end
$upscope $end
$scope module f1 $end
$var reg 1 <" clk $end
$var reg 1 =" d $end
$var reg 1 >" q $end
$var reg 1 ?" nq $end
$var reg 1 @" s1 $end
$var reg 1 A" s2 $end
$var reg 1 B" lixo $end
$scope module i1 $end
$var reg 1 C" a $end
$var reg 1 D" y $end
$upscope $end
$scope module l1 $end
$var reg 1 E" clk $end
$var reg 1 F" d $end
$var reg 1 G" q $end
$var reg 1 H" nq $end
$var reg 1 I" s1 $end
$var reg 1 J" s2 $end
$var reg 1 K" s3 $end
$var reg 1 L" s4 $end
$var reg 1 M" s5 $end
$scope module n1 $end
$var reg 1 N" a $end
$var reg 1 O" b $end
$var reg 1 P" y $end
$upscope $end
$scope module n2 $end
$var reg 1 Q" a $end
$var reg 1 R" b $end
$var reg 1 S" y $end
$upscope $end
$scope module i1 $end
$var reg 1 T" a $end
$var reg 1 U" y $end
$upscope $end
$scope module l1 $end
$var reg 1 V" s $end
$var reg 1 W" r $end
$var reg 1 X" q $end
$var reg 1 Y" nq $end
$var reg 1 Z" s1 $end
$var reg 1 [" s2 $end
$var reg 1 \" s3 $end
$var reg 1 ]" s4 $end
$scope module n1 $end
$var reg 1 ^" a $end
$var reg 1 _" b $end
$var reg 1 `" y $end
$upscope $end
$scope module n2 $end
$var reg 1 a" a $end
$var reg 1 b" b $end
$var reg 1 c" y $end
$upscope $end
$scope module i1 $end
$var reg 1 d" a $end
$var reg 1 e" y $end
$upscope $end
$scope module i2 $end
$var reg 1 f" a $end
$var reg 1 g" y $end
$upscope $end
$upscope $end
$upscope $end
$scope module l2 $end
$var reg 1 h" clk $end
$var reg 1 i" d $end
$var reg 1 j" q $end
$var reg 1 k" nq $end
$var reg 1 l" s1 $end
$var reg 1 m" s2 $end
$var reg 1 n" s3 $end
$var reg 1 o" s4 $end
$var reg 1 p" s5 $end
$scope module n1 $end
$var reg 1 q" a $end
$var reg 1 r" b $end
$var reg 1 s" y $end
$upscope $end
$scope module n2 $end
$var reg 1 t" a $end
$var reg 1 u" b $end
$var reg 1 v" y $end
$upscope $end
$scope module i1 $end
$var reg 1 w" a $end
$var reg 1 x" y $end
$upscope $end
$scope module l1 $end
$var reg 1 y" s $end
$var reg 1 z" r $end
$var reg 1 {" q $end
$var reg 1 |" nq $end
$var reg 1 }" s1 $end
$var reg 1 !# s2 $end
$var reg 1 "# s3 $end
$var reg 1 ## s4 $end
$scope module n1 $end
$var reg 1 $# a $end
$var reg 1 %# b $end
$var reg 1 &# y $end
$upscope $end
$scope module n2 $end
$var reg 1 '# a $end
$var reg 1 (# b $end
$var reg 1 )# y $end
$upscope $end
$scope module i1 $end
$var reg 1 *# a $end
$var reg 1 +# y $end
$upscope $end
$scope module i2 $end
$var reg 1 ,# a $end
$var reg 1 -# y $end
$upscope $end
$upscope $end
$upscope $end
$upscope $end
$upscope $end
$scope module i1 $end
$var reg 1 .# a $end
$var reg 1 /# y $end
$upscope $end
$scope module xor1 $end
$var reg 1 0# a $end
$var reg 1 1# b $end
$var reg 1 2# y $end
$upscope $end
$scope module or1 $end
$var reg 1 3# a $end
$var reg 1 4# b $end
$var reg 1 5# y $end
$upscope $end
$scope module a1 $end
$var reg 1 6# a $end
$var reg 1 7# b $end
$var reg 1 8# y $end
$upscope $end
$scope module a2 $end
$var reg 1 9# a $end
$var reg 1 :# b $end
$var reg 1 ;# y $end
$upscope $end
$scope module a3 $end
$var reg 1 <# a $end
$var reg 1 =# b $end
$var reg 1 ># y $end
$upscope $end
$upscope $end
$enddefinitions $end
#0
0!
1"
1#
U$
0%
1&
1'
U(
U)
U*
U+
U,
U-
U.
U/
U0
U1
02
U3
14
U5
U6
U7
U8
19
U:
U;
U<
U=
0>
U?
U@
UA
UB
UC
UD
0E
UF
UG
UH
UI
UJ
UK
UL
UM
UN
UO
UP
UQ
UR
US
UT
UU
UV
UW
UX
UY
UZ
U[
U\
U]
U^
U_
U`
Ua
Ub
Uc
Ud
Ue
Uf
Ug
Uh
Ui
0j
Uk
Ul
Um
Un
Uo
Up
Uq
Ur
0s
Ut
Uu
0v
Uw
Ux
Uy
Uz
U{
U|
U}
U!"
U""
U#"
U$"
U%"
U&"
U'"
U("
U)"
U*"
U+"
U,"
U-"
U."
U/"
00"
U1"
12"
U3"
U4"
U5"
U6"
17"
U8"
U9"
U:"
U;"
0<"
U="
U>"
U?"
U@"
UA"
UB"
0C"
UD"
UE"
UF"
UG"
UH"
UI"
UJ"
UK"
UL"
UM"
UN"
UO"
UP"
UQ"
UR"
US"
UT"
UU"
UV"
UW"
UX"
UY"
UZ"
U["
U\"
U]"
U^"
U_"
U`"
Ua"
Ub"
Uc"
Ud"
Ue"
Uf"
Ug"
0h"
Ui"
Uj"
Uk"
Ul"
Um"
Un"
Uo"
Up"
0q"
Ur"
Us"
0t"
Uu"
Uv"
Uw"
Ux"
Uy"
Uz"
U{"
U|"
U}"
U!#
U"#
U##
U$#
U%#
U&#
U'#
U(#
U)#
U*#
U+#
U,#
U-#
1.#
U/#
U0#
U1#
U2#
U3#
U4#
U5#
U6#
U7#
U8#
19#
U:#
U;#
U<#
U=#
U>#
#5000000
0-
07
0:
0<
1C
1F
1G
1P
1S
UW
Ug
Ui
Uz
U-"
U/"
05"
08"
0:"
1A"
1D"
1E"
1N"
1Q"
UU"
Ue"
Ug"
Ux"
U+#
U-#
0/#
03#
#8000000
U(
UR
UU
Ub
Ue
0o
0p
0u
0x
0{
0|
0&"
U("
0)"
U+"
UP"
US"
U`"
Uc"
0m"
0n"
0s"
0v"
0y"
0z"
0$#
U&#
0'#
U)#
U2#
U5#
U8#
U;#
U>#
#13000000
08
0=
0?
0H
0Q
UR
UU
0V
06"
0;"
0="
0F"
0O"
UP"
US"
0T"
U5#
#16000000
U("
U+"
U&#
U)#
#18000000
1K
1T
1W
1I"
1R"
1U"
#21000000
0M
0R
0X
0c
0K"
0P"
0V"
0a"
#26000000
1L
1U
1Y
1`
1J"
1S"
1W"
1^"
#29000000
Ue
Uc"
#34000000
1^
1b
1f
1\"
1`"
1d"
#39000000
0B
0I
0N
0Z
0\
0d
0g
0k
0t
0y
0@"
0G"
0L"
0X"
0Z"
0b"
0e"
0i"
0r"
0w"
#44000000
1n
1w
1z
1l"
1u"
1x"
#47000000
0_
0e
0h
0u
0]"
0c"
0f"
0s"
#52000000
1D
1J
1O
1[
1]
1a
1i
0x
1B"
1H"
1M"
1Y"
1["
1_"
1g"
0v"
#60000000
1b
1`"
#500000000
1!
1%
12
1>
1E
1j
1s
1v
10"
1<"
1C"
1h"
1q"
1t"
#505000000
0C
0F
0G
0P
0S
0A"
0D"
0E"
0N"
0Q"
#508000000
1o
0u
1x
1|
1&"
1m"
0s"
1v"
1z"
1$#
#513000000
0L
0R
0U
0Y
0`
0J"
0P"
0S"
0W"
0^"
#516000000
1$"
1("
1,"
1"#
1&#
1*#
#521000000
0)
0*
05
0@
1b
0l
0q
0}
0""
0*"
0-"
03"
0>"
1`"
0j"
0o"
0{"
0}"
0(#
0+#
00#
01#
06#
07#
0<#
#529000000
0$
0(
0,
0.
0%"
0+"
0."
0##
0)#
0,#
02#
04#
08#
0:#
0>#
#534000000
10
11
16
1A
1m
1r
1!"
1#"
1'"
1/"
14"
1?"
1k"
1p"
1|"
1!#
1%#
1-#
1=#
#537000000
0+
0/
03
0;
01"
09"
05#
0;#
#542000000
1("
1&#
0>#
#545000000
0=
0;"
#600000000
0!
0"
0%
0&
02
04
09
0>
0E
0j
0s
0v
00"
02"
07"
0<"
0C"
0h"
0q"
0t"
#605000000
17
1:
1<
1C
1F
1G
1P
1S
15"
18"
1:"
1A"
1D"
1E"
1N"
1Q"
#608000000
0o
0u
0x
0|
0&"
0m"
0s"
0v"
0z"
0$#
#613000000
0=
1L
0R
1U
1Y
1`
0;"
1J"
0P"
1S"
1W"
1^"
#616000000
1("
1&#
#621000000
1b
1`"
#700000000
0#
0'
0.#
09#
#705000000
1-
1/#
13#
#708000000
0;#
#713000000
1/
11"
19"
15#
#721000000
16"
1;"
1="
1F"
1O"
1T"
#726000000
0I"
0R"
0U"
#729000000
1K"
1P"
1V"
1a"
#734000000
0J"
0S"
0W"
0^"
#737000000
1]"
1c"
1f"
#742000000
0B"
0H"
0M"
0Y"
0["
0_"
1`"
0g"
#750000000
0\"
0`"
0d"
#755000000
1@"
1G"
1L"
1X"
1Z"
1b"
1e"
1i"
1r"
1w"
#760000000
0l"
0u"
0x"
#763000000
1c"
0s"
#768000000
0v"
#800000000
1!
1%
12
1>
1E
1j
1s
1v
10"
1<"
1C"
1h"
1q"
1t"
#805000000
0C
0F
0G
0P
0S
0A"
0D"
0E"
0N"
0Q"
#808000000
1o
0u
1x
1|
1&"
1n"
1s"
0v"
1y"
1'#
#813000000
0L
0R
0U
0Y
0`
0K"
0P"
0S"
0V"
0a"
#816000000
1("
1##
1)#
1,#
#821000000
00
1b
04"
0?"
1c"
0k"
0p"
0|"
0!#
0%#
0-#
0=#
#829000000
0"#
0&#
0*#
0>#
#834000000
1*
13"
1>"
1j"
1o"
1{"
1}"
1(#
1+#
11#
17#
#842000000
0(
1,
1)#
12#
08#
1:#
#850000000
0;#
#1000000000
0!
0%
02
0>
0E
0j
0s
0v
00"
0<"
0C"
0h"
0q"
0t"
#1005000000
1C
1F
1G
1P
1S
1A"
1D"
1E"
1N"
1Q"
#1008000000
0o
0u
0x
0|
0&"
0n"
0s"
0v"
0y"
0'#
#1013000000
1L
0R
1U
1Y
1`
1K"
1P"
0S"
1V"
1a"
#1016000000
1("
1)#
#1021000000
1b
1c"
#1200000000
1!
1%
12
1>
1E
1j
1s
1v
10"
1<"
1C"
1h"
1q"
1t"
#1205000000
0C
0F
0G
0P
0S
0A"
0D"
0E"
0N"
0Q"
#1208000000
1o
0u
1x
1|
1&"
1n"
1s"
0v"
1y"
1'#
#1213000000
0L
0R
0U
0Y
0`
0K"
0P"
0S"
0V"
0a"
#1216000000
1("
1)#
#1221000000
1b
1c"
#1400000000
0!
0%
02
0>
0E
0j
0s
0v
00"
0<"
0C"
0h"
0q"
0t"
#1405000000
1C
1F
1G
1P
1S
1A"
1D"
1E"
1N"
1Q"
#1408000000
0o
0u
0x
0|
0&"
0n"
0s"
0v"
0y"
0'#
#1413000000
1L
0R
1U
1Y
1`
1K"
1P"
0S"
1V"
1a"
#1416000000
1("
1)#
#1421000000
1b
1c"
#1500000000
1#
1'
1.#
19#
#1505000000
0-
0/#
03#
#1508000000
1+
13
1;
1;#
#1513000000
0/
01"
09"
05#
#1516000000
18
1=
1?
1H
1Q
1V
#1521000000
0K
0T
0W
06"
0;"
0="
0F"
0O"
0T"
#1524000000
1M
1R
1X
1c
#1526000000
1I"
1R"
1U"
#1529000000
0L
0U
0Y
0`
0K"
0P"
0V"
0a"
#1532000000
1_
1e
1h
#1534000000
1J"
1S"
1W"
1^"
#1537000000
0D
0J
0O
0[
0]
0a
1b
0i
1c"
#1542000000
1\"
1`"
1d"
#1545000000
0^
0b
0f
#1547000000
0@"
0G"
0L"
0X"
0Z"
0b"
0e"
0i"
0r"
0w"
#1550000000
1B
1I
1N
1Z
1\
1d
1g
1k
1t
1y
#1552000000
1l"
1u"
1x"
#1555000000
0n
0w
0z
0]"
0c"
0f"
0s"
#1558000000
1e
0u
#1560000000
1B"
1H"
1M"
1Y"
1["
1_"
1g"
0v"
#1563000000
0x
#1568000000
1`"
#1600000000
1!
1%
12
1>
1E
1j
1s
1v
10"
1<"
1C"
1h"
1q"
1t"
#1605000000
0C
0F
0G
0P
0S
0A"
0D"
0E"
0N"
0Q"
#1608000000
1p
1u
0x
1{
1)"
1m"
0s"
1v"
1z"
1$#
#1613000000
0M
0R
0U
0X
0c
0J"
0P"
0S"
0W"
0^"
#1616000000
1%"
1+"
1."
1"#
1&#
1*#
#1621000000
0*
01
06
0A
1e
0m
0r
0!"
0#"
0'"
0/"
03"
0>"
1`"
0j"
0o"
0{"
0}"
0(#
0+#
01#
07#
#1629000000
0(
0,
0$"
0("
0,"
0##
0)#
0,#
02#
08#
0:#
#1634000000
1)
10
15
1@
1l
1q
1}
1""
1*"
1-"
14"
1?"
1k"
1p"
1|"
1!#
1%#
1-#
10#
16#
1<#
1=#
#1637000000
0+
03
0;
0;#
#1642000000
0(
1,
1.
1+"
1&#
12#
14#
08#
1:#
1>#
#1645000000
08
0=
0?
0H
0Q
0V
#1650000000
1+
1/
13
1;
1K
1T
1W
11"
19"
15#
1;#
#1653000000
0R
#1658000000
18
1=
1?
1H
1Q
0U
1V
16"
1;"
1="
1F"
1O"
1T"
#1663000000
0K
0T
0W
0I"
0R"
0U"
#1666000000
0R
0P"
#1671000000
0U
0S"
#1700000000
0#
0'
0.#
09#
#1705000000
1-
1/#
13#
#1708000000
0+
03
0;
0;#
#1713000000
15#
#1716000000
08
0=
0?
0H
0Q
0V
#1721000000
1K
1T
1W
#1724000000
0R
#1729000000
0U
#1800000000
0!
1#
0%
1'
02
0>
0E
0j
0s
0v
00"
0<"
0C"
0h"
0q"
0t"
1.#
19#
#1805000000
0-
1C
1F
1G
1P
1S
1A"
1D"
1E"
1N"
1Q"
0/#
03#
#1808000000
1+
13
1;
0p
0u
0x
0{
0)"
0m"
0s"
0v"
0z"
0$#
1;#
#1813000000
1L
0R
1U
1Y
1`
1K"
1P"
0S"
1V"
1a"
15#
#1816000000
18
1=
1?
1H
1Q
1V
1+"
1&#
#1821000000
0K
0T
0W
1^
1b
1f
1]"
1c"
1f"
#1824000000
1M
1R
1X
1c
#1826000000
0B
0I
0N
0Z
0\
0d
0g
0k
0t
0y
0B"
0H"
0M"
0Y"
0["
0_"
0g"
#1829000000
0L
0U
0Y
0`
#1831000000
1n
1w
1z
#1832000000
1e
#1834000000
1e
0u
0\"
0`"
0d"
#1837000000
0^
0b
0f
#1839000000
0x
1@"
1G"
1L"
1X"
1Z"
1b"
1e"
1i"
1r"
1w"
#1842000000
1B
1I
1N
1Z
1\
1d
1g
1k
1t
1y
#1844000000
0l"
0u"
0x"
#1847000000
0n
0w
0z
1c"
0s"
#1850000000
1e
0u
#1852000000
0v"
#1855000000
0x
#2000000000
1!
1%
12
1>
1E
1j
1s
1v
10"
1<"
1C"
1h"
1q"
1t"
#2005000000
0C
0F
0G
0P
0S
0A"
0D"
0E"
0N"
0Q"
#2008000000
1p
1u
0x
1{
1)"
1n"
1s"
0v"
1y"
1'#
#2013000000
0M
0R
0U
0X
0c
0K"
0P"
0S"
0V"
0a"
#2016000000
1+"
1##
1)#
1,#
#2021000000
00
1e
04"
0?"
1c"
0k"
0p"
0|"
0!#
0%#
0-#
0=#
#2029000000
0.
0"#
0&#
0*#
04#
0>#
#2034000000
1*
13"
1>"
1j"
1o"
1{"
1}"
1(#
1+#
11#
17#
#2037000000
0/
01"
09"
05#
#2042000000
1$
1(
0,
1)#
02#
18#
0:#
#2045000000
06"
0;"
0="
0F"
0O"
0T"
#2050000000
0+
03
0;
1I"
1R"
1U"
0;#
#2053000000
0P"
#2058000000
08
0=
0?
0H
0Q
0V
0S"
#2063000000
1K
1T
1W
#2066000000
0R
#2071000000
0U
#2200000000
0!
0%
02
0>
0E
0j
0s
0v
00"
0<"
0C"
0h"
0q"
0t"
#2205000000
1C
1F
1G
1P
1S
1A"
1D"
1E"
1N"
1Q"
#2208000000
0p
0u
0x
0{
0)"
0n"
0s"
0v"
0y"
0'#
#2213000000
1L
0R
1U
1Y
1`
1J"
0P"
1S"
1W"
1^"
#2216000000
1+"
1)#
#2221000000
1^
1b
1f
1\"
1`"
1d"
#2226000000
0B
0I
0N
0Z
0\
0d
0g
0k
0t
0y
0@"
0G"
0L"
0X"
0Z"
0b"
0e"
0i"
0r"
0w"
#2231000000
1n
1w
1z
1l"
1u"
1x"
#2234000000
0_
0e
0h
0u
0]"
0c"
0f"
0s"
#2239000000
1D
1J
1O
1[
1]
1a
1i
0x
1B"
1H"
1M"
1Y"
1["
1_"
1g"
0v"
#2247000000
1b
1`"
#2400000000
1!
1%
12
1>
1E
1j
1s
1v
10"
1<"
1C"
1h"
1q"
1t"
#2405000000
0C
0F
0G
0P
0S
0A"
0D"
0E"
0N"
0Q"
#2408000000
1o
0u
1x
1|
1&"
1m"
0s"
1v"
1z"
1$#
#2413000000
0L
0R
0U
0Y
0`
0J"
0P"
0S"
0W"
0^"
#2416000000
1$"
1("
1,"
1"#
1&#
1*#
#2421000000
0)
0*
05
0@
1b
0l
0q
0}
0""
0*"
0-"
03"
0>"
1`"
0j"
0o"
0{"
0}"
0(#
0+#
00#
01#
06#
07#
0<#
#2429000000
0$
0(
0%"
0+"
0."
0##
0)#
0,#
02#
08#
0>#
#2434000000
10
11
16
1A
1m
1r
1!"
1#"
1'"
1/"
14"
1?"
1k"
1p"
1|"
1!#
1%#
1-#
1=#
#2442000000
1("
1&#
0>#
#2600000000
0!
0%
02
0>
0E
0j
0s
0v
00"
0<"
0C"
0h"
0q"
0t"
#2605000000
1C
1F
1G
1P
1S
1A"
1D"
1E"
1N"
1Q"
#2608000000
0o
0u
0x
0|
0&"
0m"
0s"
0v"
0z"
0$#
#2613000000
1L
0R
1U
1Y
1`
1J"
0P"
1S"
1W"
1^"
#2616000000
1("
1&#
#2621000000
1b
1`"
#2800000000
1!
1%
12
1>
1E
1j
1s
1v
10"
1<"
1C"
1h"
1q"
1t"
#2805000000
0C
0F
0G
0P
0S
0A"
0D"
0E"
0N"
0Q"
#2808000000
1o
0u
1x
1|
1&"
1m"
0s"
1v"
1z"
1$#
#2813000000
0L
0R
0U
0Y
0`
0J"
0P"
0S"
0W"
0^"
#2816000000
1("
1&#
#2821000000
1b
1`"
